O O O O O O O O O O O O B-P O O
O O O O O B-A B-A O O O O O B-P O O O O O O O O
O O O O O B-A B-A O O O O O B-P O O O O O O O O
O O O O O B-P O B-P O O O O O O O O
O O O O O O B-P I-P I-P I-P
O O O O O O O O O O O O O O O O B-P O B-A O O O O O
O O O O O O O O B-P O O O O O O O O O O O O O
O O O O O O O O O B-P I-P I-P O O O O O O O O O O
O O O O O O O O O O O O O O B-P
O O O B-P O O O
O O O O O O O O O O O O O O O B-A O O O
O O O B-A O O O O O O O O O O
B-P O O O
O O B-P O O O B-P O O B-P O O O O O O O O
O O O O O B-P O O O O O O O O O O O
O O O O O O O O O O O O O O O O B-P O B-A O O O O O
O O O O O O O O O O O O O O O B-P I-P I-P I-P O O O O O O
O O O O O O O O O O O O O O O O O O B-P O O O O O O O O O
O O O B-P O O O O O O O O
O O O O O O O O O O O O O B-P
O O O O B-P O O
O O O O O O O O O O O B-P B-A O O O O O O O O O
O O O O O O O O O O O B-P B-A O O O O O O O O O
O O O O O O O B-P
O B-P O O O O O O O O O O O O O O O O O
O O O O O O B-P I-P B-P O O O O O O O O O O O O O O
O O O B-A O O O B-P O B-P O O O O O O O O
O O O O O O O B-P O O O O O O O O O O O O O O O
O O O O O O O O O O B-P O O O O O
B-A O O O O O O O O O O O O O O O O O O O
O O O O O O O O O B-P O O O O
B-P I-P O O O O O
O O O O B-P I-P I-P O O O O O O O B-P O O O O
O O O O O O O O O B-P O O O O O O O O
B-P O O O O O O O O O O O O O O O O
O O O O O O O O O O O O B-P O O O O O O O O O
O O O O O B-P O O O O O O O O O O O O
O O B-A O O O O O O O O O O O
O O O O O O O O O O O B-P O O O O O O O O O O O O O O
O O B-P O B-P O O O O O O O O O O O O O O O O O O O
O O O O O O O O O O O O O O B-P I-P I-P O O O O O O
O O O O O B-P O O O O O O O O
O O O O O O O O O O O O O O O O O B-A O O O O O
O O O O O O O O O O O O O B-A O O O O O O O
O B-A O O O O O O B-P O O O O O O O
O O O O O O O B-A O O O O O O O O O
O O O O O O B-P O O O O O O O O O
O O O O O O O O O O O B-P O O O O O O O O O O O O O
O O O O O O O O O O O O O O O O B-A O B-A O O O O O
O O O O B-A O O O O O O O O
O O O O O B-P O O O O
B-A O O O O O O O O O O O O O O
O O O O O O O O O O O O O O O O O B-P I-P I-P O O O O O
O O B-P O O O O O O O O O O
O O O O O O O O O O B-P I-P I-P O O O O O O O O O O O O
O O B-A O O O O O O O O O O O O O O
O O O O O O O O O B-A O O O O O O O
O O O B-P O O O B-P O O O O O
O O O B-A O O O O O O O O O O O O O O O O
O O O O B-P I-P O O O O O O O O O O O O O O O O O O O O O O
O O O O O O O O O O O O O O O O B-P I-P I-P I-P O B-A O O O O O
O O O O O O O O O O O O O O O B-P O O O O O O O O O
O O O O O O O O O O B-A O O O O O O O O O O O O
O O O O O O O O O O O O O O O O B-A O O O O O
O O O O O O O O O O B-A O O O O O O O O O O
O O O O B-A I-A O B-A O O O O O O O O O O O O O O O
O O O B-P O O O O O O O O O O O O O O O O O
O O B-A O O O O B-A I-A I-A O O O O
O O O O O O B-P O O O O O O O O B-A O O O O O
O O O O O O O B-P O O O O O O O O O
O O O O O O O O O O B-A O O O O O O O O O O
O O O O B-A O B-A I-A O O O O O O O O O O
O O B-P O O O O O O O O O O O O O
O O O O O B-P I-P O O O O O O O O O O O O O O O
O O O O O O B-P O O O O O O O O O O O O
O O O O O O O O O O O B-A O O O O
O O O O O O O O O O O O O B-A O O O O O O
O O B-P O O O O O O B-A O O O O
O O O O O B-P O O O O O
O O O O B-A I-A O B-A O O O O O O O O O O O O O O O O
O O O O O O O O O O O B-A O O O O O O O O O O O
O O O O O O O O O O O O B-P O O O O O O O O
O B-A O O O O O O O O O O O O O O O
O O O O O B-P O O O O O O O O O O O O O O O
O O O O O O O O O O B-A O O O O O O O O
O O O O B-P I-P I-P O O O O O O O B-P O O O O
O O O O O O B-P O O O O O O O O
O O O O B-A O O O O O O O O O O O O O
B-P O O O O O O O O B-P O O O O
B-P O O O O O O O O O O O O O O O O O O O
O O O O B-A O O O O O O O O O O O O O O O O O
O O B-P O O O O O O O O O O O O O O O O O O
O B-P O O O O O O O O O O O O O O
O O O O O O O B-A O O O O O O O B-A O O O O
O O O B-A O O O O O O O O O O O O O
O O O O O B-A O O B-P O O O O O O O O
O O O O O O O O O O B-A O O O O O O O O O O
O O O B-A O O O B-P I-P I-P O O O B-A O O O O O
O O O O B-P O O O O B-P O B-P O O O O O O O O
O O B-P O O O O O O O O O O O O O O O O O O O O O O O O
B-P O O O O B-P I-P I-P O O O O O O O O
O B-P O O O O O O O O O O O O O O O O O
O O B-P O O O O O O O O O
O O O O O O O O O O O O O B-A O O O O O O O O O O
O O O O O O O O B-A O O O O O O
O B-A O O O O O O O O O O O O O O O O
B-P O O O O O O O O O O O O O O O O O O O
O O O B-P O O O O O O O O O O O O O O O O
O O O O O O O O O O O O O O O O B-P I-P O O O O O
O O O O B-P O
O O O O O O B-P O O O O O B-P O O O O
O O B-P O O O O O O O O O O O O
O O O O O O O O O O O O O O B-A
O O O O O O O O O O O O O O O O O B-A O O O O O O O
O O B-P O O O O O O O O O O O O O O O O O O
O O O O O O O B-P O O O O O O O O O O O O O O
O O O O O O B-P I-P O O O O O O O
O O O O O O B-P I-P O O O O O O O
O O O O O B-A O O O O O O O O O O O O
O O O O O O O O B-A O O O O O O O O O O O O O O O O
O O O O O O O B-A O O O O O O O B-A O O O O
O O O O O B-P I-P O O O O O O O
O O O O O O O O O O O O O O O B-A O O O O
O O O O O O B-P I-P O O O O O O O
O O O O O B-P I-P O O O O O O O
O O O O O O O O O O O B-A O O O O
O O O O O B-P I-P O O O O O O O
O O O O O O O O O O O B-P O O O O B-P I-P I-P O O O O O
O O B-P O O O O O B-P O O O O O O O O O O
O O O O O O O O O O O O O O B-A O O O O O O O
O O O O O O O O O O O O O O B-A O O O O O O O
O O O O O O O O O O O B-A O O O O O O O
O O O B-P O O O O O O O O O O O O O O
O O O O O O O O O O O O O B-P O O O O O
O O O B-A O O O O O O O O O O O O O O O O O O
O O O O O O B-P I-P O O O O O O O
O O O O O B-P I-P O O O O O O O
O O O O O O B-P I-P O O O O O O O
O O O O O O O O O O O O B-P I-P O O O O O O O O O O O O
O O O O O B-P O O O O O O O O O O O
O O O O O O O O O O B-P O O O O O O
O O B-A O O O O O O O O O
O B-A O O O O O O O O O O O O O O
O O O O O B-P I-P O O O O O O O
O O O B-A O O O O O O O O O O O B-P O O O O O O
O O O O O O O O O O O B-P O O O O O O
O O O O O B-P I-P O O O O O O O
O B-A O O O O O O O O O O O O O O
O B-P O O O B-A O O O O O O B-A O O O O O O O O
O O O O O B-P I-P O O O O O O O
O O O O O B-P I-P O O O O O O O
B-P O O O B-P O O O O O O O O O
O O B-P O O O O O O O O O O O
O O O O B-P O O O O O O O O O O O O O O O O O
O O B-A O O O O O O O O O O O O O O O O B-P O O O O
O O O O O B-A O O O O
B-P O O O O O O O O O O O O O O O O O O O O O O O O
O O O O O O O O O O O O O O O O B-A O O O O O
O O B-A O O O O O O O O O O O O O O O O O O O
O O O O O O O O O O O O O B-P O O O O O O O O O O O
O O B-P O O B-A O O O O O O B-A O O O O
O B-A O O O O O O O O O O O O O O
O O O O O O O O O O O O O O B-P O O O
B-A O O O O O O O O O O O O O O O O O
O O O O O O O O O O B-A O O O O B-P O O O O O O O
O O O O O O O O O O O O O O O B-A O O O O
O O O B-A O O O O O O O O O O O O O O O O
B-P O O O O O O O O O O O
O O O O O O O O O B-A O O O O O O O O O O O O
O B-A O O O O O O O O O O O O O O O O O O O
O O O O O O O O O O B-A O O O O O O O O
O O O O O O O O O O O O O O B-P O O O O O O
O B-P O O O B-A O O O O O O B-A O O O O O O O O
O O O B-A O O O O O O O O O O O O O O O O
O O O O O O O O O B-P O B-A O O O O O B-P O O O O O
O O O O O O O O O O B-P O O O O O O O O O
O O O O O B-A O O O O O O O O O O O O O
O O O O O O O O O O O O O O O O B-P I-P I-P O B-A O O O O O
O O O O O O O O O O O B-P O O O O B-P I-P I-P O O O O O
O O O O O O O O O O O O O O B-A O O O O O O O
O O O O O O O B-A O O O O O O O O
O O O O O O O B-A O O O O O O O O
O O O O O B-P I-P O O O O O O O
O O O O O B-P I-P O O O O O O O
O O O O O O O O O O O O O O O O O B-P O O O O O O
O O O O O O O O O B-A I-A O O O O O O O
O O O O O O O O O B-A O O O O O O O O O O O
O O O O O O O O O O O O O O O B-A O O O O O O
O O O O O O O B-P O O O O
B-P O O O O O O O O O O O O O O O O O O O
O O O O O O O O O O O O O B-P B-A O O O O O O O O
O O O O O O O O B-P B-P O O O O O O O O O O O O
B-P O O O O O O O O O O O O O O O O O O O
O O O O O O O B-P I-P O O O O O O O O O O O O O O O
O O B-P I-P O O O O O O O O O O O O O O O
O B-H I-H O O O O O O O O B-P O O O O O O
O B-T I-T B-P B-A O O O O O O O O O O O O O O O O O
B-A O O O O B-P O O O O O O O O
O O O B-P O O O O O O O O O O O O O O O O O
O O B-P O O O O O O O O O O O O O
B-A O O O O O O O O O O O B-A O O O O O O O
O O O O O B-T I-T B-P B-A O O O O O O O O O O O O O
O O O O O B-A B-A O B-A O O O O O O O O O O
O O O B-A O O O O O O O O O O O O O O O O
O B-A O O O O O O O O O O O O O O
O O B-P O O O O O O O O O O O O O O O O
O O B-P O O O O O O O O O O O O O O O O O
O O O O O B-P B-A O O O O O
O O O O O O B-A O O O O O O O O O O O O O O
O O B-P O O O O O O O O O O O O O
O O B-P O O O O O O O O O O O O O O O
O O O B-P I-P O O O O O O O O O O O
O O O O O O O B-A O O O O O O O B-A O O O O
O O O O O O O O O O O O O O O O O O O O O O O O O B-A
O O O O O O O O O B-T I-T O B-P I-P I-P O O O O O O
O O O O O O O O O O O B-A O O O O O O O O O O O
O O O O O O O O O O O B-A O O O O
O O B-A O O O O O O O O O O O O O
O O O O O O O O O O B-P O O O O O O
O B-P O O O O O O O O O O O O O
O O O O O O O O O O O O O B-A O O O O O O O
O O O O O O O O O B-A O O O O O O O O O O O O O O O
O B-A O O O O O O O O O O O O O O O O O
O O B-P O O O O O O O O O O O O
O O O O O O O B-A O O O O O O O O O
B-A O O O O O O O O O O O O O O O O O
O O B-A O O O O O O O O O O O O O O O
O O O O O O O O O B-P O O O O
O O O O O O O O O O O B-P O O O O O O O O O O O O O
O O O B-A O O O O O B-P I-P O O O O O O O O O O O
O O O O O B-P B-A O O O O O O O O O
B-P O O O O O O O O O O O O O O O O O O O O
O O O O O O B-P O O O O O O O O O O O O O O
O O O O O O O O O O O O O B-P B-A O O O O O O
O O O O O O O B-A O O O O O O O B-A O O O O
B-P O O O O O O O O O O O O
O O O O O O O B-A O O O O O O O O O
O O O O O O B-P O O O O O O O O O O
O O O O O O O O O O O B-P O O O O O O O
O B-P O O O O O O O O O O B-P O O O O O
B-P O O O O O O O O O O O O
O O O O O O O O O O O O B-P O O O O O O O O O O O O O
O O O O O O O B-T I-T O O B-P O O B-A O O O O
O O O O O O O O B-P O O O O O O O O
O O O O B-A O O O O O O O O O O O O O O O
O O O O O O O O O O O O O O O B-P O O O O O
O O O O O O O O O O O B-P B-P
O O O O O O O O O O O O O O O B-P O O O O O
O O O O O O O O O O O B-P O O O O
O O O O O O O O O O O O O O O B-P O O O O O
O O B-P O O O O O O O O O O O O O O O O O O O
O O O O B-A O O O B-P I-P I-P O O O O O O O O O
O O B-A O O O O O O O O O O O O O O
O B-P O O O O O O O O O O O O O O O O O
O O O B-A O O O O O O O O O O O O O O O
O O O B-A O O O O O O O O O O O O O O O O
O O O B-A O O O O O O O O
O O O O O O O O O O O O O B-P O O O O
B-P O O O O O O O O O B-P O O O O
O O O O O O O O O B-A O O O B-P I-P I-P O O O O
O B-P O O O O O O O O O O O O O O O
B-A I-A O O O O O O O O O O B-A O O O O
O O B-P O O O O O O O O O O
O O O O O O O O O O O O B-A O O O O O O O O O O O O
O O O O O O O O O O O O O O O O O O O O B-P I-P I-P O O O O O
O B-A O O O O O O O O O O O O O O O O O O O O O O
O O O B-A O O O O O O O O O O O O O O O O
O O O O O O O O O O B-A O O O O O O O O O O
B-A O O O O O O O O O O O O O O O O O O O O O O O O
O B-P O O O O O O O
O O O O O O O O O O O O O O O O O B-P O O O O
O O O O O B-P O O O O O O O O O O
O O O O O B-A O O O O O O O O O O O O O
B-A O O O O O O O O O O O O O O
O O O O O O O O O O O O O B-P B-A O O O O
B-P I-P O O O O O O O O O O O O O O
O O O O O O O O O B-P O O O O O O O O O O O O
O O B-P B-P O O O O O O O O O O O O O
O O B-A O O O O B-P O O O O O O O O O O
O O O O O O O O O O O O O O O O O B-A O O O O
O O O O O O O O O B-A I-A O O O O O O O
O O O O O O O B-P O O O O
O O O O O B-A O O O O O O O O O O O O O O
O O O O O O O O O O O O B-A O O O O O O O O O O O O
O O O O O O O O O B-A I-A O O O O O O O
O O O B-A O O O O O O O O O O O O O O O O
O O O O O O O O B-P I-P I-P O O O O O O O
O O O O O O O O O O O O O O O O B-A O O O O O
O B-P O
O O B-P O O O O O O O O O O O O O O O O O O O O O O
B-P I-P I-P O O O O O O O O O O O
O O O O B-P O O O B-P O B-P O O O O O O O O
O O O O O B-P O O O O O O O O O O
B-A O O B-P O O O O O O O O O O O O O O
O O O O O O O O B-P O O O O O O O O O O O
O O B-P O O O O O O O O O O O O O O O
O B-P O O O O O O O O O O O O O O O O
O O O O O O O O O O O O O O O O O B-P O O O O O
O O O O O O O O O O B-P O O O O O O O O
O O O O O O O O O O B-P O O O O O O O O
B-P I-P O O O O O O O O O O O O O
O O O O O O O O O O O B-P O O O
O O O O O O O O O O O O O B-P O O O O O O O O
O O O O O O O O O O O B-P O O O O
O O O O O O O O B-A O O O O O O O O O O O O O O O O
B-P O O O O O O O O O O
O O B-A O O O O B-P O O O O O O O O O
O O O O O O O O O B-P O O O O O O O O O
O B-P O B-P O O O O O O O O O O O O O O O O
B-P O O O B-P O O O O O O O O O O
O O O O O O O O O O O O O B-P O O O O
O O O O O O O O O O O O O B-P O O O O
O O O O O O O O O O O O O B-P O O O O
O O O O O O O O O O O O O B-P O O O O
O O O O O O O O O O O O O B-P O O O O
O O O O O O O B-A O O O O O O O O O O O O O O O O
O O O B-P O O O O O O O
O O O O B-A I-A I-A O O O O O O O O O O O O O O O O
O O O O O O O O O O B-P O O O O O O O O O O
B-P O O O O O O O O O O O O O O O O O O O
O O B-A O O O O O O O O O B-P O O O O
O O O O O O O B-A O O O O O O O B-A O O O O
O O O O O O O B-P O O O O O O O O O O O O O
B-A O O O O O O O O O O O O O O O O O O O O
O O O O O O O O B-P O O O O O O O O O O O O O
B-A O O O O O O O O O O O O
O O O O B-P O B-P O O O O O O
B-P O O O O O O O O O O O O O O O O O O O O O O O O
B-P O O B-P O O O O O O O O O O O
O O B-A O O O O O O O O O O O O O O O O O O
O O O O O B-A B-A O B-A O O O O O O O O O O
B-P O O O O O O O O O O O O O O O O O O O
O O O O O O O O O O B-P O O O O O O O
O B-P O O O O O O O O O O O O O O O O
O B-P O O O O O O O O O O O O O O O O
O B-P O O O O O O O O O O O O O O O O
O O O O O O O O O O O B-A O O O O O O
O B-P O O O O O O O
B-P I-P O O O O O O O O O O O O O O O
O O O O O B-A O O O O O O O O O O O O O O O O O O
O O O O O O B-P O O O O
O O O O O O O O O O B-A O O O O O O O O
B-P O O O O O O O O O O O O O O O O O
O O O O O B-A O O O O O O O O O O O O O O O O
O O O O O O O O O B-A O O O O
O O B-P O O O O O O O O O O O O O O O O O O O
B-P O B-P I-P O O O O O O O O O O O O O O O O O O O O
B-P O O O O O B-A O O O O O O O O O
O O O O O O O O O O O O B-P O O O O
O O O O O O O O O O O O O B-A O O O O
O O O O O O O O O O O O O O O O B-P O O O O
O O O O O O O O O O O O O B-P B-A O O O O
O B-P O O O O O O O O O O O O O O O O
B-P O O O O O O O O O O O O O O O O
O O O O O O O O O B-A I-A O B-A O O O O O O O O O O
O O B-P O O O O O O O O O O O O O O O O O O B-P
O B-P O O B-A O O O O O O B-A O O O O O B-A O
O O O O O O O O O O O O O O O O B-A I-A O O O O
O O O O O O O O O O O O O O O O O O O B-P O O O O O
O O O O O B-A I-A I-A O O O O O O O O O O O O O O O O O
O O O O O O O O O O B-P I-P O O O O O O O O
O O O O O O O O B-A O O O O O O O O O O O O O O O
O O O O O O O O O O B-P O O O O
O O O O O O O O O B-P O O O O O O O O O O O O
O O O O O O O O O O O O O O B-A O O O O O O O
O O O O O O O O B-P O O O O O O O O
O O O O O O O O O O B-P O B-P O O O O O O
O O O O O B-A O B-P O O O O
O O O O B-P O O O O O O O O O O O O O O O O O O
O O O O O B-P B-A O O O O O
O O B-P O O O O O O O O O O O O
O O O O O O O O O O O O O O O O B-A O O O O O O
O B-A O O O O O O O O O O O O O
O B-P O O O O O O O O O O O O O O O O
O O O O O O B-A O O O O O O O O O O O O O O
O B-T I-T O O O O O O O O O O O O O
O O O O O O O O O O O B-A B-A O O O O
B-A O O O O O O O O O O O O O O O O O
O O O O O O O B-T I-T O O O O O O O O O O O O O
O O O O O O O O O O O O O O O O O B-P O O O O
O O O B-P O O O O O O O O O O O O O O
O O O O O B-P O O O O O O O O O O O O O O O
O O O B-A O O O O O O O O O O O O
O O O O O O O O O O O O O O B-A
O B-P O O O O O O O O O O O O O O
B-A O O O O O O O O O O O O O O O O O O O O
O O O O O O O O O O B-A O O O O O O O O
O O O O O O O O O O O O O O O O B-A O O O O O O O
O O O O O O O O O O O O O O O O B-A O O O O O O
O O O O O O O O O O O O O O O B-A O O O O O O O
O O O O O O O O B-A I-A O O O O O O O O O O O O O O
O O O O O B-A O O O O O O O O O O O O O O O O O
O B-P O O O O O O O O O O O O O O O O O O O
O O O O O O O B-P O O O O O O O O O O O O O O O
O O O O O O O O O O O O O B-P O O O O O
O O O O O O O O O O O O O B-A O O O O O O O
O O O O O O O O O O B-P O O O B-P I-P O O O O O O O O
O O O O O O O O O O O O O B-P O O O O
O O O O O O O O O O O O O O O O O O B-A O O O O
B-A I-A O O O O O O O O O O O O O
O O O O O O O O O B-P I-P I-P O O O O
O O O B-P O O O O B-P O O O O O O O O O O O O O O
O O O B-A O O O O O O O O O O O O O O O O O O O O
O O B-P O O O O O O O O O O O O O O O O O
O O B-T I-T O O O O O O O O O O O O O O O O O O O O O
B-P O O O O O O O O O O O O O O O O O O O O O
O O B-P O O O O O O O O O O O O O O
B-P O O B-P O O O O O O O O O O O O O O O O O
O O O B-P O O O O O O O O O O O O O O O
O O O B-P O O O O O O O O O O O O O O O O O O
O O O O O O O O O O B-A O O O O O O O O
O O B-A O O O O O O O O O O O O O O O O O
O O O O O B-P O O O O O O
O B-P O O O O O O O O O O O O O O
O B-P O O O O O O O O O O O O O O
O O O O B-A O O O O O O O O O O O O O O O O
O O B-P O O O O O O O O O O O O O O O O O O O O O O
O O O O O O O B-P O O O O O
O O O O O O O O B-P B-P O B-P B-P O O O O O
B-P O O O O O O O O O O O
O O O O O O O B-A O O O O
O O O O O O O O O O O O O O O O O O O B-P O O O O O
O O B-P O O O O O O O O O O O O O O O O O O O
O O O O O O O B-A O O O O O O O B-A O O O O
O O O B-P O O O O O O O O O O O O O O
O O O O O O B-P O O O O O O O O O O O O O
O O O O O O O O B-P I-P O O O O O O O O O O O
O O O O O O O O O B-P O O O O O O O O O O O
B-P O O O O O O O B-P O O O O O O O
O O O O O O O O B-P I-P O O O O O O O O O O O O
O O B-P O O O O O O O O O O O O O O O O O O O O
O O O O O O O O O O B-P O O O B-P I-P O O O O O O O O
O O O O O O O O B-P O O O O O O O O O B-P O O O O O
O B-A O O O O O O O O O O O O O O O
B-P I-P I-P O O O O O O O O O O O O O O O O
O O O O O O O O B-P O O O O O O O O O O
O O B-A O O O O O O O O O O O O O O O O
O O O O O B-P O O O O O O O O O O O O O
O O O O O O B-T I-T B-A O O O O O O O O O O O O O O O
O B-A O O O O O O O O O O O O O O O O O O O O
O B-P O B-A O O O O O O O O O O O O O
O O O O O B-P O O O O O O O O O O O O O O O O O
O O B-A O O O O O O O O O O O O O O O O
O O O O O O O O O O O O O B-A I-A O O O O O O O O
O B-A O O O O O O O O O O O O O O O O O O O
B-P O O O O O O O O O O O O O O
O O O O B-P O O O O O O O O O O O O O
B-P O O O O O O O B-P O O O O O O O
O B-T I-T O O O O O O O
O O O O O O O O B-P I-P
B-P O O B-P O O O O O O O O O O O O O O O O
O B-P O O O B-A O O O O O O B-A O O O O O O O
O O O O O O O B-A O O O O O O O O O
B-P O O B-P O O O O O O O O O O O O O O O O
O O O O O O O O O B-P I-P I-P O O O O O O O O O O O O O O
O O O O O O O O O O O O B-A B-A O
B-P O O O O O O O O O O O O O
O O O B-P I-P O O O O O O
O O O O O O O O O O O O O O B-A O O O O O O O O O O O
B-P O O O B-P O O O O O O O O O O O O O O O O O O
O O O O O O O O O O O O O O B-A O O O O O O O O O O O
O O O O O O B-P O O O O O O O
O O O O O O O B-A O O O O O O O O O
O O O B-A O O O O O O O O O O O O O O O O O
O O O B-P O O O O O O O O O O O
O B-P O O O O O O O O O O O O O O O O O O
O O O B-A O O O O O O O O O O O O O O
O O O O O O O O O O O B-A O O O O O O O O O O O
O O O O O B-A O O O O O O O O O O O O O O O
B-P O O O O O O O B-P O O O O O O O O O O O
O O B-A O O O O O O O B-P I-P I-P O O O O
O O O O O O O O O O O O O O O O B-A O O O O O
O O O O O O B-P O O O O O O O O O O O O O O O
O O O O O O O O O B-A I-A O O O O O O O O O
O O O B-A I-A O O O O O O O O O O O O O O O O O
O O O O B-P O O O O O O O O O O O O O O
O O O O O O O O O O B-A O O O O O O O O
O O B-A O O O O O O O O O O O O O O O O
B-P O O O O O O O O O O O O O O O O O O O O O O
B-A O O O O O O O O O O O B-A O O O O O O O O O
O B-A I-A O B-P O O O O O O O O O O O O O O O O O O O
O O O O O O O O O B-A O O O O O O O O O O O O O
O O B-P B-P O O O O
O O O O O O O B-P O O O O O O O O O O O O O O O O O O
O O O O O O O O O B-P O O O O O O O O
O O O O B-A O O O O O O O O O O O O O O O O O O O O O
O O O O O O O O O O O O O O B-P
O O O O O O O O O O O O O B-A O O O O
B-A O O O O O O O O O O O O O O O
B-P O O O B-P O O O O O O O O O O O
O O O O O O O O O O O O O O B-A O O O O O O O
O O O O O O O O O O O O O O O O O B-A O O O O O O O
O O O B-H I-H O O O O O B-A O O O O O O O O
B-P O O O O O O O O O O O O O O O O O O O O O O O
O O O O O O B-A O O O O O O O
O O B-A O O O O O
B-P O O B-P O O O O O O O O O O O O O O O O
O O O O O O O O O O O O O O B-P O B-P I-P O O O O O O
O B-P O O O O O O O O O O O O O
B-P O O O O O O O O O O O O O O O O O O O O O O O
B-P O O O O O O O O O O O
O O O O O O O B-P O O O O O O O O
O O O O O O O O O O O O O O O O O B-A O O O O O O
B-P O O O O O O O O O O O O O O O O O
O O O O O B-A O O B-P O O O O O O O O O O
B-P O O O B-P O O O O O O O O O O O
O O O O O O O O O B-P O O O O O O O O O O O
O O O O O O B-A O O O O O O O O O O O O O O O O
O O B-A I-A O O O O O O O O O O
O O O O O O O O O O O O O O O O O O O B-P
B-A O O O O O O O O O O O O O O O
O O O O O B-A O O O O O O O O O O O O O O O O O O O
O O O O B-P O O O O O O O O O O O
O O O O O B-P O O O O O O O O O O O O O O O O O O
O O O O O O O O O O B-P O O O O O O O O O O
B-A O O O O O O O O O O O O O O O O O O O O
O B-P O O O O O O O O O O O O O O
O O O O O O O O O O O O O O O O O O O O B-P O O O O O O O
O O O O O O B-P O O O O O O O O
O O O O O O O O O O O O B-A O O O O O O O O O
O O O O O O O O O O O O O B-P O O O O O O
O O O O B-A O O O O
O O O O O B-P I-P I-P O O O O O O O O O O O O O O O O O
O O O O O O O O O O O O B-P O O O O O O O O
O O O O O B-P O O O O O O O O O O O O O O O O O O
B-P O O O O O O O O O O O O O O O O O O O O O
O O B-A O O O O O O O O O O O B-A O O O O
O O O O O O O B-A O O O O O O O B-A O O O O
O O O O O O O O O O O O O O O O O O B-A I-A O O O O O O O
O O O B-P O O O O O O O O O O O O O O O O
B-P O O O B-P O O O O O O O O O O
O O O O O O O O O B-P I-P O O O O O O O O
O O O O O O O O O O O O O O O O B-A O O O O O
O O O O B-A O O O O O O O O O O
O O O O O O B-P O O O O O O O O
O O B-A O O B-A O O O O O O O O O O O O O B-P O O O O
O O O O O O B-A O O O O O O O O O O
O O O O O O O O O B-P O O O O O O O O
O O B-A O O O O O O O O O B-A O O O B-A O O O O O O
O O O O O O O O O O B-P I-P O O O O O O O O
O O O O O O O O O B-P I-P O O O O O O O O
O O O O O O O O O O O O O O O B-P I-P O O O O O O O O
O O O O O O O O O O O B-A O O O O
B-P O O O O O O O O O O O O O O O O O O
O O B-P I-P O O O O O B-P O O O O O O O O O
O O O O O O O B-P O O O O O O O
O O O O O O O O O O O O O O B-P O O O O O O
O O O O O B-P I-P I-P O O O O O O O O O O O O O O O O O
B-P O O O B-P O O O O O O O O O O
O O O O O O O O O B-P I-P O O O
O O O O O O O O O O O O O O O O O O O O O O O O O B-A
O B-P O O O B-P O O O O O O O O O B-A O O O O
O O O O O O O O O O O O O O B-P O O O O O O O O
O O O O O O O O O O O O O O B-P I-P O O O O O O O O
O O O O O O O O B-A O O O O
O B-P O O O O O O O O O O O O O O O O O
B-P O O B-P O O O O O O O O O
O O O B-A O O O O O O O O O O O O O O O
O O O O O O O O O B-P I-P O O O
O O O O O O O O O B-P I-P O O O
O O O O O O O O O B-P I-P O O O
O O O O O O O O O B-P I-P O O O
O O O O O O O O O B-P I-P O O O
O O O O O O O O O O O O O O O O B-A O O O O O
O O O O O B-P I-P I-P O O O O O O O O O O O
B-A O O O O O O O O O O O O O B-P O O O O O O
O O O O O O O O O B-P O O O O
O O O O O O B-A O O O O O O O O O O O O
O O O O O O O O O B-P O O O O O
B-P O O O B-P O O O O O O O O O O O O O O
O O B-A O O O O O O O O O O O O O O O O O
O B-P O O O O O O O O O O O B-P O O O O O O O O
O O O O O O O O O O O B-A O O O O O O O O O O O O
O B-A O O O O O O O O O O O O O O O O O O O
B-A O O O O O O O O O O O
O O O B-P O O O O O O O O O O B-P O O O O O
O O O O O B-A O O O O O O O O O
B-P O O O O O O O O O O O O O
O O O O O O O O B-P O O O O
O O O B-P O O O O O O O O O O O O O O O O O O O O O O O O O
O O O O O B-A O O O O O O O B-P O O O O
B-P O O O O O O O O O O O O O O O O
O B-P B-H I-H B-P O O O O O O O O
O O O O O O O O B-P O O O O O O O O O O O O
O O B-A O O O O O O O B-P I-P I-P O O O O O O O O
O B-P O O O O O O O O O O O O O O O O O
O O O O O O O O O O B-P I-P O O O O O O O O
O B-A O O O O O O O O O O O O
B-P O O O B-P O O O O O O O O O O O
O O O O O O O O B-P O O O O O O O O O O O O O
O O O O O O O O O O O O O O O O B-P O B-A O O O O O
O O B-P O O
O O O O O B-A O O O O O
O O O O O O O B-P O O O O O O
O O O O O O O O O O B-P O O O O O O O
B-P O O O O O O O O O O O O O O O O B-P
O O B-A O O O O O B-P O O O O O O O O O O O O O O
O O O O O O O O O O B-P I-P O O O O
B-P I-P I-P O O O O O O O O O O O O O O O O O O O
O O O O O O O O B-P O O B-A O O
O O B-P O O O O O O O O O O O O O O O O O O O O O
B-P O O O O O O O O O O O O O O O O O O O O
O O O O O O O O O O O O O O B-P I-P I-P O O O O
O B-P O O B-P O O O B-P O O O O O O
O O O O O O O O B-P I-P I-P O O O O O O O O O O O O O O O
O O B-A O O O O O O O O O O O O O O O
O O O O O O O O O B-P I-P I-P O O O O O O O O O O
O O O O O O O O O O O O O O O O O O O O O B-P O O O O
O O O O O O O O O O O O O O B-P I-P I-P O O O O
O O B-A O O O O O O O O O O O O O O O O O O O
O O O O O O O O O O O O O O B-P I-P I-P O O O O O O O O
O O O O O O O O O O O O O B-A O B-A O O O O O
O O O O O O O B-A O O O O O O O O O
O B-A O O O O O O O O O O O O O O O O
O O O O O O B-P O O O O O O O O O O
O O O O O O O O O O B-P O O O O O O O O O O O
O O O O O B-P O O O O O O
O O B-A O O O O O O O O O O O O
O O O O O O O O B-A O O O O O O O O O O
B-A O O O O O O O O O O O O O O O O O O O
O O O O O O O O O B-P I-P I-P O O O O O O O O O O
B-P O O O O O O O O O O O O O O O O O O
O O O O O O O O O O O O B-P O O O O O
O O O O B-P O O O O O O O O O O O O O O O
O O O O O O B-A O O O O O O
O O O O O B-A O O O O O O O O O
O O O O O O B-A O O O O O O O O
B-P O O O O O O O O O O O O O O
O B-P I-P O O O O O O O O O O O O O O O O O O
O O O O O O B-P
O O B-A O O O O O O O O O O O O O O O
B-P O O O O O O O O O O O
B-A O O O O O O O O O O O O O O B-P O O O O
O O B-A O O O O O O O O O O O
O O O O O O O O B-P O O O O O
O O O O O O O O O O B-P I-P I-P O O O O O O O O O
O O B-A O O O O O O O O O O O O O
B-A O O O O O O O O O O O O O O O O
O O B-A O O O O O O O O O O O O O O O O
O O O O O B-P I-P O O O O O O O O O O O O O O
B-P O O O O O O O O O O O O O O O O O O O O
O O O O O B-A O O O O O O O O O O O O O O O
O O O O O O O O O B-P O O O O O O O O O
O O O O O O O O O B-A O O B-A O O O O O
B-P O O O O O O O O O B-A B-P O O O O O O
B-P O O O O O O O O O O O O O O O O O O
O O B-P O O O O O O O O O O O O O O O O O
B-P O O O O O O O O O O O B-P O O O O O
O O O O O O O O O B-P O O O O
O O O O O O O B-A I-A O O O O O O O
O O B-A O O O O O O O O O O O O O O O O O O O
O O O O O O O O B-P I-P I-P B-P O O O O O O O
O O O O O O O O O O O O O B-A O O O O
B-A O O O O O O O B-A O O O O O O O O O O B-A O O O O
O B-P O O O O O O
O O O O O O O B-A I-A O O O O O O O
O O O O O O O B-A I-A O O O O O O O O O O O O O O
B-P O O O O O O B-P O O O O O O O
B-P O O O O O O B-P O O O O O O O
O O O O O O O O O O O B-P I-P I-P O O O O O O O O O O O
O O O O B-A O O O O O O O O O O O O O
O O O O O O O O O O B-P
O B-A O O O O O O O O O O O O O O O O O
B-P O O O O O O O O O O O O O O
O O O O O O O O O O B-A O O O B-A O O O O O O O
O O O O O O O B-A O O O O O O
O B-A O O O O O O O O O O O O O O O
O O O O O O O B-P O O O O O
O O O O O O O B-P O O O O O O O O O O O O O O
O O O B-A O O O O O O O O O O O O O O O
B-P O O O O O O O O O O B-P O O O O O O O O O O
O O O O O O O O O O O O O B-P O O B-P O O O O
O B-P I-P I-P O O O O O O O O O O O O O O O O O O O O O
O O O O O O O O O B-P O O O O O
B-P I-P O O O O O O O O O O O O
O O O O O B-P O O O O O O O O O O O O O
O O O O O B-P O O O O O O O O O O O
O O O O O B-A O O O O O O O O O O O O O O O
O O O O O B-P O B-P O O O O
O B-P O O O O O O O O O O O O
O O O O O O O O O O O O O O O B-A O O O O O O O O O O
O O B-P O O O O O O O O O O O O O O O O
O O O O O O O B-A O O O O O O O B-A O O O O
O O O O B-A I-A O B-A O O O O O O O O O O O O O
O O O O O O O O O O O O O B-P O O O O O O O O
O O O O O O O O O O B-A O O O O O O O O O O
B-P O O O O O O O O O O O O O O O O O O
O O O O O O O O O O O O O O O O O O O O O O O O O B-A
O O O B-A O O O O O O O O
O O O O O B-P O O B-P O O O O O O O O O O O O O
O O O O O O B-P O O O O O O O O O O O O
O O O O O O O O B-A O O O O O O O O O
O O O O O O O O B-A O O O O O O O O O O O O
O O O O O O B-A O O O O O O O O O O O
O O O O O O O O B-A O O O O O O O O O
O O O O O O O O O O O B-P O O O O O O O O O O O O O
O O O B-A O O O O O O O
O O O B-A O B-A O O O O O O O O O
B-P O O O B-P O O O O O O O O O O O O
O O O O O O O O B-A O O O O O O O O O O O
O O O O O O B-P O O O O O O O O O O O O
O O B-A O O O O O O O B-A O O O O O O
B-P I-P O O O O O B-P O O O O O O O O
B-P O O O O O O O O O O O O O O O O O O
O O O O O B-P I-P I-P O O O O O O O O O O O O O O O O O
O B-P O O O O O O O O O O O O O O O
O O O O B-P O O O O O O O O O O O
O O O O O O O O O O O B-A I-A I-A O O O O O O O O O O O
O O O O O O O O B-A O O O O O O O O O O O O
O O O O O O O O O O B-P I-P O O O O O O O O O O O
O O O O O O O O O O O O O O B-A O O O O O O O O O
O O O B-A O O O O O O O O O
O O B-A O O O O O O O O O O O O O O O O
O O O O O O O B-P O O O B-P O O O O O O O O O O
O O O O O O O O O O O O O O B-P O O O O O O O O
O O O O O B-P B-A O O O O O O O O O O O
O O O O O O O O O O O O O O B-A O O O O O O O O O O O
O O O O O O O O O B-A O O O O O O
O O O O O O B-P O O O O O O O O O O O O O O O
O O O O O O O B-P O O O O O O O O O O
B-P O O O O O O O O O O O O O O
O O O O O O B-A O O O O O O O O O O O O O O O
O O B-P O O O O O O O O O O O O
O O O O O O O O B-P O O O O O O O O O B-P O O O O
O O O O O O O B-P O O O O O O O O O O O O O O O O O
B-P B-P O O O O O O O
O O O O O O O B-P O O O O O O O O O O
O O O O O O O O O O O O O O B-P O O O O O O O
O O B-A O O O O O O O O O O O O O O O O O O
O B-P O O O O O O O O O O O O O O O O B-A O O O O
B-P O O O O O O O
O O B-A O O O O B-P O O O O O O O O O O O O O O O O O
O O B-A O O O O O O O O O O O O O O O O
O O B-P O O O O O O O O
B-A O O O O O O O O O O O O
O O O O O B-A O O O O O O B-A O O O O O O O O O O O
O O O O O O O O B-A O O O O O O O O O O O O
O O B-A O O O O O O O O O O O O O O O O O O
O O B-A O O O O O O O O O O O O O O O O O O
O O O O O O O O O O B-P O O O O O O O O O O O O O
O O O O O O O B-P O O O O O O O O O O O O O O O
O O O O O O B-A O O O O O O O O O O O O O
O O O O O O O O O O O B-A O O O O O O O O O O O O
O O O O O O O O O O O O O O O B-A O O O O O
B-A O O O O O O O O O O O O O O O O
O O O O O O O B-T I-T O O O O O O O O O
O B-P O O O O O O O O O O O O O O O O O O O
O O O O O O O O O O O O B-A O O O O O O O O O O O O
O O O B-P O O O O O O O O O O O O O O O O O O O O
B-A O O O O O O O O O O O O O O O O O
O O B-A O O O O O O O
O O B-A O O O O O O O O O O O O O O O
B-P I-P I-P O B-P O O B-P O O O O O O O O O O O O
B-A O O O O O O O O O O O O O O O
O O O O O O B-A O O O O O O O O O O O O
O O B-P O B-P O O O O O O O O O B-P B-P O O O O
O O O O O O O O O O O O B-A O O O O O O O O O O O O
B-P O O O O O O O O O O O O O O O O O O O O
B-P O O O O O O O O O O O O O O O O O O O O
O O O O O B-A O O O O O O O O
O O O B-A O O O O O O O O O O O O O O O O O O
O O O O O O B-A O O O O O O O O O O O O O O
O O O O O O O O O O O O O B-A O O O O O O O O
O O O O O O O O O O O O O O O B-P O B-P O O O O O O O O
O B-A O O O O O O O O O O O O O O O O O O O
B-P O O O O O O O O O O O O O O O O O O
O O B-P O O O O O O O O O O O O O O O O O O O O O O O O O
B-P O O O O O O O O O
O O O O O O O B-A O O O O O O O B-A O O O O
O O O O O O O O O O O B-P O O O O
O O O O O O O O O O O O B-P O O O O O O O O O O
O O O O O O O O O O O O B-P O O O O O
O B-P O O O B-A O O O O O O B-A O O O O O O O O
B-P O O O O O O O O O O O O O O
O O O O O O O O O O O O O O O O O O B-A O O O O O O O O O
O O O O O O O O O O O O O O O O B-A O B-A O O O O O
O O O O O O O O O O O O B-P O O O O O O O O O O
O O O O B-A O O O O O O O O O O O O O O B-A O O O O O O O
O O O O O O O O B-A O O O O O O O O O
O O O O O B-P O O O O O O O O O B-T I-T B-P I-P O O O O O O
B-A O O O O O O O O O O B-P O O O O O O
B-A O O O O O O O O O O O O O O O
B-P O O O O O O O O O B-A O O O O O O O O
O O B-A O O O O O
O O B-P I-P O O O O O O O O O O O O O O O O O O
O B-A O O O O O O O O O O O O O O O O O O O O O O O
O O O O O O O O O O O O O B-P O O O O O O O O
O O O O O O O O O O O O B-P O O O O O O O O
B-P O O O O O O O O O O O O O O O O O O O
O O O B-A O O O O O O O O O O O O
O O O O O O B-P O O O O O
B-A O O O O O O O O O O O O O O O
O O O O O B-P O O O O O O O O
O O O O O O O O B-P I-P O O O O O O O O O O O O
B-A O O O B-P O O O O O O O O O O O O
O O O O O B-A O O O O O O O O O O
O O B-A O O O O O O O O O O O O O O O
O O O O O B-A B-P O O O O O O O O O O O O O O O
B-P O O O O O O O O B-P O O O O
O O O O O O O O O O O O O O B-P I-P I-P O O O O O O
O O O O O B-P I-P O O O O O O O O
O B-A O O O O O O O B-A O O O O O O O O O O O O O
O O B-P O B-P O O O O O O O O O
O O O B-A O O O O O O O O O O
B-A O O O O O B-A I-A O O O O O O O O O O O O
O O O O O B-P O O O O O O O O O O O O O
O O O O O O O O B-P O O O O O
O O O O O O O O O O O B-A O O O O O O O O O
O O O O O O O O O O O B-A O O O O O O O O O
O O O O O B-T I-T O O O O O O O O O O O O O
O O O O O O O O O O O B-A O O O O O O O O O O
O O O O O O O O O O B-A O O O O O O O O O
B-A O O O O O O O O O O
O O B-A O O O O O O O O B-A I-A I-A O O O O O O
O O O O O B-P O O O O O B-P O O O O
O O O O O B-P O O O O O B-P O O O O
B-P O O O O O O O O O O O O O B-P O O O O
O O O O B-A I-A O O O O
O B-A B-A O B-A O O O O O O O O O O B-A O O O O O O O O
O O O O O O O B-A O O O O O O O O O O O O
O O O O O O O O O O O B-A O O O O O O O O O O
O O O O O O O O O O O O O B-A O O O O O O O O
O O O O O O O O O O O O O B-A O O O O O O O O
O O O O O O O O O O O O O B-A O O O O O O O O
O O O O O O O O O O O O O O O O B-A
O B-A O O O O O B-P I-P O O O O O O
O O O O O O O O O O O O O B-A O O O O O O O O
B-P O O O O O O B-P O O O O O O O O
O O O O B-P O O O O O O O O O B-P O O O O
B-A O O O O O O O O O O O O O O O O O O O O
B-P O O O O O O O O O O O O O O O O O O O
O O O O O B-A B-A O B-A O O O O O O O O O O O O O
O B-A O O O O O O O O O O O O O O O
O O B-P O O O O O O O O O O O O
O O B-A O O O O O O O O O O O
O B-P O O O O O O O O O O O O
O O O O B-A O O O O O O O O O O O O O
B-P I-P I-P I-P O O O O O O O O O O O O O O O O O
O O O O B-A O O O O O O O O O O O O O O
O O B-T I-T O B-P O O O O O O O O O O O O O O
B-P O O O B-P O O O O O O O O O O O
O O B-A O O O O O O O O O O O
O O O B-P O O O O O O O O O O O O O O
O O O O O O O O O O O O O O B-A O
O O O O O O O O O O O O O O B-A
O O O O O O O O O B-A O O O O O O O O O O O O
O O O O O O O O O B-A O O O O O B-P
O O O O O O O O O O O O O O B-A O
O O O O O O O O O O O O O O B-A
O O B-A O O O O O O O O O O O O O O O O O O
B-P I-P I-P O O O O O O O O O O O O O O O O O O O
O B-A B-A O B-A O O O O O O O O O B-A O O O O O O O O
B-P O O O O O O O O O O O
O O O O O O O O O O O O O O B-P O O O O O
B-P O O O O O O O O O O
O O O O O O O O O O O B-A O O O O
B-P I-P I-P O O O O O O O O O O O O O O O
O O O O O O O O O O O O O O O B-A O O O O O
B-P I-P O O O O O O O O O O O O O B-A O O O O O
O O O O O O O O O O O O O O O O B-A O O O O O O O
O O O B-P O O O O O O B-H I-H O O O O B-H I-H O O O O
O O O O O O O O B-P O O O O O O O O O
O O O O O O O O O O O O O B-A O O O O
O O O O O O O O O O O O O O O O B-P O O O O O O O
O O B-P O O O O O O O O O O O O O O O O
O O B-P O O O O O O O O O O O O O O
O B-A O O O O O O O O O O O O O O O O
O B-P O O O O O O O O O O O O O O O O O O O O
O O O O O O O O O O O O O B-P I-P O O O O
O O O O O O O O O B-A O O O B-P I-P O O O O
O O O O O B-A O O O O O B-A O O O O O O O O O O O O
O O B-P I-P O O O O O O O O O O O O O O O O O O
O O O O O O B-A O O O O O O
O O B-A O O O O O O O O O O O O O O O
B-P I-P I-P O O O O O O O O O O O O O O O O O O O O O O O O
O O O O B-A I-A O O O O O O O O O O O O O O O O O O O
O O O O O O O O O O O O O B-A O O O O O O O
O O O O O O O O O O O O O O O B-A O O O O
O O O O O B-P I-P O O O O O O O O O O O O O O O
O O O O O O O B-A O O O O O O O
O O O O B-P O O O O O O O O O O O
O B-A O O O O O O O O O O O O O O O O O O
O O O O O O O O O O O O O O O B-P I-P I-P O O O
B-P O O O O O O B-P O O O O O O O
B-P O O O B-P O O O O O O O O O O O
B-P O O O O B-P O O O O O O O O O O O
O O O O O O O O O O O B-P O O O O
O B-A O O O O O B-P O O O O O O O O O O O O O
O O O O O O O O O O O O O O O B-A B-A O O O O O O
O O O O O O B-P O O O O
O O O O O O B-A O O O O O O O O O O O O
B-A O O O O O O O O O O O O O O O O O O
O O O O O O O O O O O O B-A O O O O
O O O O O O O O B-A O O O O O O O O O O
O O O O O O O O B-P I-P I-P I-P O O O O
O O O O O B-P O O O O O
O O O O B-P O O O O O O O O O O O O O O O O O O
O B-P I-P O O O O O O O O O
O O O O O O O O O O O O O B-A O O O O O O O O O O O
O O O O O B-A O O O O O O O O O O O
O O B-A O O O O O O O O O O O O O O O O
B-A O O O O O O O O O O O O O O O
O O O O O O O O O O O O O B-P O O O O
B-A B-P O O O O O O O O O O O O O O
O O O B-P O O O B-P O O O O O O O O O O O O O O
O O O O O O O O O O O O O B-P
O O O O O O O O O O B-P I-P I-P I-P O O O O O O O O O
O B-P O O O O O O O O O O O O O O O O O O O O O O
O B-P I-P I-P O O O O O O O O O O O O O O O O O
O O O O O O O O O O O O O B-P O O O O O O O O
O B-A O O O O O O O O O O O O O O O O O O O
B-P O O O O O O O O O O O O O O O O O
O O B-P O O B-P O O O O O B-P O B-P O O O O
B-P I-P I-P O O O O O O O O O O O O O
B-P I-P I-P O O O O O O O O O O O O O O O
O O O O O B-P O O O O O O O O B-P O B-P B-P O O O O
O O O O O O O O O O O O B-P I-P I-P O O O O O O O O O O
O O B-P O O O O O O O O O O O O O O O O O O O O O O O O O O
O O O O B-P O O O O O O O O O O O O O O O O O O
O O O O O O B-P O O O O O O O O O O O O
O B-A O O O O O O O O O O O O O O O O O O O O O
O O B-P O O O O O O O O O O O O O O O O O O
O O O O O B-A O O O O O O O O O O O O O O O O O
B-P O O O O O O O O O O O O O O O O O O O O O O O
O B-P O O O O O O O O
O O O O O O O O O O O O B-P I-P I-P O O O O O O O O O O
O O O O O O O O O O O O O O O O B-P O O O O O O O O
O O O O O O O B-P O O O O O O O O O O O O O O
O B-P O O O O O O O O O O O O O O O O O O O O O O O
O O O O B-A I-A O O O O O O O O O O O O O O
O O O O O O O O O O B-P O O O O O O O
O O O O O O O O O B-P O O O
O B-A O O O O O O O O O O O O O O O O O O
O O O B-A O O O O O O O O O O O
O O O O O O O O O O O O O O O O O O O B-P O O O O O O O
B-P O O O O O O O O O O O O O O O O O O O O O O O
O B-P O O O O O O O O O O O O O O O O O O O O O O O
O O O B-H I-H I-H O O O O O O O O O O O O O O
B-P O O O
O O O B-A O O O O O O O O O O O
O O O O O O O O O B-A I-A I-A O O O O O O O O O O
O O O B-A O O O O O O O O O O
O O O O O O O O O O O B-A O O O O
O O O O B-P I-P O O O O O O O O O
O O O O O O O O B-A O O O O O O O O O O O O
O O O O O O O B-P O O O O O O O O O O O O O O
O O O O O O O O O O O O O O O O O B-A O O O O O O O O
O O O O O O B-A O O O O O O O O O O O O O O O O
O O O O O O O O O O O O O O O B-A O O O O
O O O O O O B-A O O O O O O O O O O O O
O O O O O O O O O O O B-P O O O O
O O O O O O O O O O B-A O O O O
O O O O O O B-A O O O O O O O
O O O O O O O O O O B-A O O O O O
B-A O O O O O O O O O O O O O O O O O O O
O B-A O O O O O O O O O O O O O O O O O O O O
O O O O O O O O O O B-A O O O O
O O O O O O O O O B-A O O B-A O O O O O
O O O O O O O O O O O O O O O O O B-A O O O O O
O O O O O O O O O O O B-P O O O O O O O O O
O O O O O O O O O O O B-P O O O O O O O O O
O O O O B-P O O O O O O O O O O O O O
O O O B-P O O O O O O O O
O O O O O O O B-A I-A O O O O O O O O O O O
O O O B-A O O O O O O O O
O O O O O O O O O O O O O O B-P O O O O O
O O O O O O O B-A O O O O O O O O O
B-P O O O B-P O O O O O O O O O O
O O O O O O B-A O O O O
O O O B-A I-A O O O O O O O O O O O O O O O O O
O O O O B-P O O O O O O O O O O O O O O O O O O O O
B-P O O O O O O O O O O O O O O O O O O B-P O O O O O O
O B-P O O B-P I-P O O O O
O O O O O O O O O B-P O O O O O O O O
O O O O O O O O O B-P O O O O O O O O
O O O O O O O O O O O B-P O O O O O O O O O O
O O O O O O O O O O O O O O O B-A
O O O O O O O O O O O O B-P O O O O
O O O O B-P O O O O O O O O O
O O O B-P B-P O O O O
B-P I-P I-P O O O O O O O O O O O O
O O O O B-T I-T O O O O O O O O O O O
O O O O O O O O O O O O O B-P O O O O
O O O B-A O O O O O O O O O O O O
B-P O O O O O O O O O O O O O O O O O O O O
O O B-P O O O O O O O O O O O O O O O O
O O O O O B-P O O O O O
O B-P O O O O O O O O O O O O O
O O O O O O O O O O O O O B-A O O O O O O O O O O
B-P O O O O O O O O O O O O O O O O
B-P O O O O O O O O O O O O O O O
O O O O O B-A O O O O O O O B-A
O O O O O O O O O O O O B-A
O O O O O O O B-A I-A O O O O O O
B-P O B-P I-P O O O O O O O O O O O O O O O O O O O O
O O O O O O O O O O B-A O O O O O O
O O O O O O O O O O O O O O O B-A O O O O O O
O O O O O O O O O O B-P O O O O O O O
O O B-P O O O O O O O O O O O O O O O O
O O O O O O O O B-T I-T O O O O O O
O O O O O O O O O B-A O O O O O O O O O O O O O O O O O
B-P O O O O O O O O O O O O O O O O O O
B-A O O O O O O O
O B-P O O O O O O O O O O O O
B-P O O O O O O O O O O O O O O O
B-P O O O O O O O O O O O O O O
O O O O O O O O O O O B-A
O O O O O O O B-A O O O O O O O O O O O B-A O O O O
O O O O O O O O B-P B-P O O O O
O O O O O O O O O O O O O O O B-A O O O
O O O O O O O O O O O O O O O B-A
O B-A O O O O O O O O O O O
O O O O O O O O O O O O O O O O O O O B-P I-P O O O O
B-P O O O O O O O O O O O O O O O O O O
O O O O O O O O B-P B-P O O O O
B-P I-P I-P O O O O O O O O O O O O
B-A O O O O O O O O O O O
O O B-A O O O O O B-A O O O O O O O O
B-P I-P I-P O O O O O O O O O O O O
O B-A O O O O O O O O O O O O O O O O O O
O O B-A O O O O O O O O O O O O O O O
O O O O O O O O B-P O O O O
O O O O O O O O B-P O O O O O
O O O B-A O O O O O O O
O O O O O O O O B-P O O O O
O O O O O O O O B-P O O O O O O O O
O O O O B-P O O O O O O O O O O O O O O O O O O O O
B-P O O O O O O O B-A O O O O O O O
B-A O O O O O O O O O O O O
O O O O O O O O O O O O O O B-A O O O O O O O O
O O B-P O O O O O O O O O O O O
O O B-P I-P O O O O O O O O O O O O O O O O O O
O O O O O O B-A O O O O O O O O O O O O O
B-A O O O O O O O O O O O O O O O O O O O O O
O B-A O O O O O O O O B-A O O O O O
O O O O O O O O O O O O O B-P O O O O O O
O O O O O O O O O O O O O B-P O O O O
O O O B-A O O O O O O O O O O O O O O O O O O
O O O O O O O O O O O O O O B-A O O O O
O O O O O B-A O O O O O O O O O O O O O
O O O O O O O O O O O O O O O O O O B-T I-T O O O O
O O O O O O O B-P B-P O O O O
O O O O O O O O O O O B-A O O O O O O O
O O O O O B-P I-P I-P O O O O O O O O O O O O O O
O O O O O O O O O O O O B-P O
O O O O O O O O O O O O O O O O B-P O O O O O
O O O O O O O O O O O O O B-P O O O O O O
O O B-P I-P O O O O O O O O O O O O O O O O O O
O O O O O O O O O O O O O O O B-A I-A O O O O
O O O O O O O O B-P O O O O O O O O O O O O O
O O O O O O O O B-P O O O O O O O O
O O O O O O O O O O B-A O O O O O O O O
O O O B-P O O O O O O O O O O O
O O B-A O O O O O O O
O B-A O O O O O O O O O O O O O
O O O O O O O B-P O O O O O O O O O O O
O O O O O B-A O O O O O O
O O O O O O O O O O O B-A O O O O O O O O
O O O O O O O O O B-P O O B-A O
O O O O O O B-A O O O O O O O O O O O O O O O O
O O O O B-P I-P O O O O O O O O O O O O O O O O O O
O O O O O O O O O O O O O O O O O O O O B-A O O O O O O O
O O O O O O O O O O O O O O O O O O O O B-A I-A O O O O O O O
O B-P O O O O O O O O O O O O O O O O O O O O O O
O O O O O O O O O O O B-A B-P O O
O B-P O O O O O O O O O O O O O O O O O O O O
O O O O O O O O O O B-P O O O O O O O O O O O O
O O O O O O O O B-P O
B-P O O O O O O O O O O O O
O B-H O O O O O O O
O O O O O O O O O B-P O O O O O O O O O O O O O O O O
O O O O O B-P B-P O B-P O O O O O O O O O
O O O O O O O O O O O B-P O O O O O O O O
O O O O O O O O O O O O O B-P O O O O O O O O O O
O O O O O O O O O O O O O O B-P O O O O O O O O
B-A O O O O O O O O O O O O O O O O O
O O O B-A O O O O O O O O O O O O O O O
O O O O O B-T I-T O O O O O O O O O O O O O
O O O O O B-T I-T O O O O O O O O O O O O O
O O O O O B-T I-T O O O O O O O O O O O O O
B-P O O O O O O O O O O O O O O O
B-P O O O O O O O O O O O O O O O B-P B-P
O O O O B-P O O O O O O O B-P O O O O O
O O O O O O O O B-A O O O O O O O O B-P O O O O O O O
O O O O O O O O O O O B-P O O O O O O O O O O
B-P O O O O O O O O O O O O
O O O O O O O O O O O O O O B-A O O O O
O O O O O O O O O B-A B-A O B-A O O O O O O O O
O O O O B-A O O O O O O O O O O O
O B-P O O O O O O O O O O O B-P O O O O O O O
O O O O O O O O O O O B-A O O O O
O O O O O O B-A O O O O O O O O O O O
O O B-P O O O O O O O O O O O O O O O O O O
O O O B-A O O O O O O O O O O O O O O O O O O O
O O O O O O O O O O O O O O O O O O B-P O O O O
O O O O O O O O O O O O B-P O O O O O O O O